C:\Users\oana_\Documents\master\EH\lab4\manage_fhir\src\main\java\ro\tuc\heroku\dtos\components\common\Attachment.java
C:\Users\oana_\Documents\master\EH\lab4\manage_fhir\src\main\java\ro\tuc\heroku\dtos\OrganizationDTO.java
C:\Users\oana_\Documents\master\EH\lab4\manage_fhir\src\main\java\ro\tuc\heroku\entities\components\Contact.java
C:\Users\oana_\Documents\master\EH\lab4\manage_fhir\src\main\java\ro\tuc\heroku\controllers\handlers\exceptions\model\EntityValidationException.java
C:\Users\oana_\Documents\master\EH\lab4\manage_fhir\src\main\java\ro\tuc\heroku\dtos\components\common\Reference.java
C:\Users\oana_\Documents\master\EH\lab4\manage_fhir\src\main\java\ro\tuc\heroku\dtos\builders\OrganizationBuilder.java
C:\Users\oana_\Documents\master\EH\lab4\manage_fhir\src\main\java\ro\tuc\heroku\repositories\LinkRepository.java
C:\Users\oana_\Documents\master\EH\lab4\manage_fhir\src\main\java\ro\tuc\heroku\dtos\components\common\ContactPoint.java
C:\Users\oana_\Documents\master\EH\lab4\manage_fhir\src\main\java\ro\tuc\heroku\dtos\PersonDTO.java
C:\Users\oana_\Documents\master\EH\lab4\manage_fhir\src\main\java\ro\tuc\heroku\dtos\builders\components\LinkBuilder.java
C:\Users\oana_\Documents\master\EH\lab4\manage_fhir\src\main\java\ro\tuc\heroku\dtos\components\common\Identifier.java
C:\Users\oana_\Documents\master\EH\lab4\manage_fhir\src\main\java\ro\tuc\heroku\controllers\IndexController.java
C:\Users\oana_\Documents\master\EH\lab4\manage_fhir\src\main\java\ro\tuc\heroku\entities\components\Link.java
C:\Users\oana_\Documents\master\EH\lab4\manage_fhir\src\main\java\ro\tuc\heroku\dtos\components\common\Address.java
C:\Users\oana_\Documents\master\EH\lab4\manage_fhir\src\main\java\ro\tuc\heroku\services\OrganizationService.java
C:\Users\oana_\Documents\master\EH\lab4\manage_fhir\src\main\java\ro\tuc\heroku\dtos\builders\PersonBuilder.java
C:\Users\oana_\Documents\master\EH\lab4\manage_fhir\src\main\java\ro\tuc\heroku\dtos\validators\annotation\AgeLimit.java
C:\Users\oana_\Documents\master\EH\lab4\manage_fhir\src\main\java\ro\tuc\heroku\controllers\handlers\exceptions\model\ParameterValidationException.java
C:\Users\oana_\Documents\master\EH\lab4\manage_fhir\src\main\java\ro\tuc\heroku\entities\Organization.java
C:\Users\oana_\Documents\master\EH\lab4\manage_fhir\src\main\java\ro\tuc\heroku\repositories\ContactRepository.java
C:\Users\oana_\Documents\master\EH\lab4\manage_fhir\src\main\java\ro\tuc\heroku\dtos\components\common\Period.java
C:\Users\oana_\Documents\master\EH\lab4\manage_fhir\src\main\java\ro\tuc\heroku\dtos\builders\UtilBuilder.java
C:\Users\oana_\Documents\master\EH\lab4\manage_fhir\src\main\java\ro\tuc\heroku\entities\Person.java
C:\Users\oana_\Documents\master\EH\lab4\manage_fhir\src\main\java\ro\tuc\heroku\dtos\validators\AgeValidator.java
C:\Users\oana_\Documents\master\EH\lab4\manage_fhir\src\main\java\ro\tuc\heroku\controllers\OrganizationController.java
C:\Users\oana_\Documents\master\EH\lab4\manage_fhir\src\main\java\ro\tuc\heroku\dtos\builders\components\ContactBuilder.java
C:\Users\oana_\Documents\master\EH\lab4\manage_fhir\src\main\java\ro\tuc\heroku\controllers\handlers\exceptions\model\DuplicateResourceException.java
C:\Users\oana_\Documents\master\EH\lab4\manage_fhir\src\main\java\ro\tuc\heroku\controllers\handlers\exceptions\model\ResourceNotFoundException.java
C:\Users\oana_\Documents\master\EH\lab4\manage_fhir\src\main\java\ro\tuc\heroku\HerokuApplication.java
C:\Users\oana_\Documents\master\EH\lab4\manage_fhir\src\main\java\ro\tuc\heroku\controllers\handlers\RestExceptionHandler.java
C:\Users\oana_\Documents\master\EH\lab4\manage_fhir\src\main\java\ro\tuc\heroku\dtos\components\common\Assigner.java
C:\Users\oana_\Documents\master\EH\lab4\manage_fhir\src\main\java\ro\tuc\heroku\controllers\PersonController.java
C:\Users\oana_\Documents\master\EH\lab4\manage_fhir\src\main\java\ro\tuc\heroku\dtos\components\common\CodeableConcept.java
C:\Users\oana_\Documents\master\EH\lab4\manage_fhir\src\main\java\ro\tuc\heroku\dtos\components\common\Coding.java
C:\Users\oana_\Documents\master\EH\lab4\manage_fhir\src\main\java\ro\tuc\heroku\repositories\OrganizationRepository.java
C:\Users\oana_\Documents\master\EH\lab4\manage_fhir\src\main\java\ro\tuc\heroku\controllers\handlers\exceptions\model\ExceptionHandlerResponseDTO.java
C:\Users\oana_\Documents\master\EH\lab4\manage_fhir\src\main\java\ro\tuc\heroku\dtos\components\common\HumanName.java
C:\Users\oana_\Documents\master\EH\lab4\manage_fhir\src\main\java\ro\tuc\heroku\dtos\components\ContactDTO.java
C:\Users\oana_\Documents\master\EH\lab4\manage_fhir\src\main\java\ro\tuc\heroku\dtos\components\LinkDTO.java
C:\Users\oana_\Documents\master\EH\lab4\manage_fhir\src\main\java\ro\tuc\heroku\repositories\PersonRepository.java
C:\Users\oana_\Documents\master\EH\lab4\manage_fhir\src\main\java\ro\tuc\heroku\controllers\handlers\exceptions\model\CustomException.java
C:\Users\oana_\Documents\master\EH\lab4\manage_fhir\src\main\java\ro\tuc\heroku\services\PersonService.java
